% mean error (test set)	
 4.8303e-02	
 3.6126e-02	
 2.9890e-02	
 2.6161e-02	
 2.3760e-02	
 2.1926e-02	
 2.0805e-02	
 1.9796e-02	
 1.8991e-02	
 1.8552e-02	
 1.8166e-02	
 1.7818e-02	
 1.7660e-02	
 1.7500e-02	
 1.7342e-02	
 1.7168e-02	
 1.7017e-02	
 1.7071e-02	
 1.6866e-02	
 1.7012e-02	
 1.6932e-02	
 1.7020e-02	
 1.6979e-02	
 1.6812e-02	
 1.6809e-02	
 1.6880e-02	
 1.6961e-02	
 1.6932e-02	
 1.6891e-02	
 1.7040e-02	
 1.6969e-02	
 1.6983e-02	
 1.7094e-02	
 1.7075e-02	
 1.7231e-02	
 1.7305e-02	
 1.7152e-02	
 1.7386e-02	
 1.7256e-02	
 1.7393e-02	
 1.7548e-02	
 1.7446e-02	
 1.7406e-02	
 1.7522e-02	
 1.7555e-02	
 1.7481e-02	
 1.7453e-02	
 1.7682e-02	
 1.7712e-02	
 1.7727e-02	
